{
  "innerPlanetCount": 4,
  "scale": 349600000,
  "minScale": 747686.8476309399,
  "minDrawRadius": 5,
  "maxDrawRadius": 30,
  "simulationStep": 60,
  "satelliteTrajectoryStepMultiplier":  1,
  "innerTrajectoryStepMultiplier": 100,
  "outerTrajectoryStepMultiplier": 500,
  "trajectoryPoints": 200
}